vhdl2/proj3b/part3b.out
ncsim: 15.20-s035: (c) Copyright 1995-2017 Cadence Design Systems, Inc.
TOOL:	ncsim	15.20-s035: Started on Dec 16, 2020 at 16:17:22 EST
ncsim
    -input part3b.run
    -batch
    -logfile part3b.out
    -messages
    -cdslib /afs/umbc.edu/users/b/c/bcain1/home/cs411/vhdl2/cds.lib
    -hdlvar /afs/umbc.edu/users/b/c/bcain1/home/cs411/vhdl2/hdl.var
    part3b

Loading snapshot vhdl.part3b:schematic .................... Done
ncsim> run 540 ns
---PC--- --inst--  loadmem process input .abs file
00000000 8C010074 	lw   $1,w2($0)    -- Icache stall, Dcache will stall
00000004 8C020078 	lw   $2,w3($0)    -- Dcache stall on access w2
00000008 00221820 	add  $3,$1,$2     -- pipeline stall
0000000C 00222022 	sub  $4,$1,$2
00000010 00012BC4 	sll  $5,$1,15     -- Icache stall
00000014 00023402 	srl  $6,$2,16
00000018 0005380B 	cmpl $7,$5
0000001C AC010080 	sw   $1,w5($0)    -- Dcache will stall
00000020 30A80070 	addi $8,w1($5)    -- Icache stall
00000024 8C0F0070 	lw   $15,w1($0)
00000028 8C100074 	lw   $16,w2($0)  
0000002C 01F08820 	add  $17,$15,$16  -- $16 forwarded, stall 
00000030 02319020 	add  $18,$17,$17  -- $17 forwarded on both
00000034 76320005 	beq  $17,$18,lab1 -- one stall, no br
00000038 8C090080 	lw   $9,w5($0)    -- always execute
0000003C 8C0C0070 	lw   $12,w1($0)   -- executed
00000040 08000013 	j    lab1
00000044 8C010078 	lw   $1,w3($0)   -- branch slot, always
00000048 8C0E0070 	lw   $14,w1($0)  -- not executed
0000004C 74410002 lab1:	beq  $2,$1,lab2  -- forward, does branch 
00000050 0181580F 	or   $11,$12,$1  -- always execute
00000054 8C0E0074 	lw   $14,w2($0)  -- not executed
00000058 8C0A0084 lab2:	lw   $10,w6($0)  -- run long enough to load
0000005C 08000017 lab3:	j    lab3:	 -- loop until time runs out
00000060 8C0D0080 	lw   $13,w5($0)  -- branch slot, always
00000064 8C0E0078 	lw   $14,w3($0)  -- not executed
00000068 00000000 	nop
0000006C 00000000 	nop
00000070 11111111 w1:	word 0x11111111
00000074 22222222 w2:	word 0x22222222
00000078 33333333 w3:	word 0x33333333
0000007C 44444444 w4:	word 0x44444444
00000080 55555555 w5:	word 0x55555555
00000084 66666666 w6:	word 0x66666666
loadmem ended. memory loaded
stall=0clk=0 at=0 ns
stall=Uclk=0 at=0 ns
stall=0clk=0 at=0 ns
stall=Uclk=0 at=0 ns
stall=0clk=0 at=0 ns
stall=Uclk=0 at=0 ns
stall=0clk=0 at=0 ns
stall=1clk=0 at=0.2 ns
clock 0  inst=00000000  PC   =00000000 PCnext=00000004
ID  stage  IR=00000000                                                 rd=00000
EX  stage  IR=00000000  EX_A =00000000  EX_B =00000000  EX_C =00000000 rd=00000
EX  stage             EX_aluB=00000000 EX_res=00000000
MEM stage  IR=00000000  addr =00000000  data =00000000                 rd=00000
WB  stage  IR=00000000  read =00000000  pass =00000000 result=00000000 rd=00000
control RegDst=1  ALUSrc=0  MemtoReg=0  MEMRead=0  MEMWrite=0  WB_write_enb=0
reg 0-7 00000000 00000000 00000000 00000000 00000000 00000000 00000000 00000000 
   8-15 00000000 00000000 00000000 00000000 00000000 00000000 00000000 00000000 
  16-23 00000000 00000000 00000000 00000000 00000000 00000000 00000000 00000000 
RAM 70- 11111111 22222222 33333333 44444444 55555555 66666666 00000000 00000000 

line=0  V=0  tag=000000  w0=00000000  w1=00000000  w2=00000000  w3=00000000
line=1  V=0  tag=000000  w0=00000000  w1=00000000  w2=00000000  w3=00000000
line=2  V=0  tag=000000  w0=00000000  w1=00000000  w2=00000000  w3=00000000
line=3  V=0  tag=000000  w0=00000000  w1=00000000  w2=00000000  w3=00000000
clock 1  inst=00000000  PC   =00000000 PCnext=00000004
ID  stage  IR=00000000                                                 rd=00000
EX  stage  IR=00000000  EX_A =00000000  EX_B =00000000  EX_C =00000000 rd=00000
EX  stage             EX_aluB=00000000 EX_res=00000000
MEM stage  IR=00000000  addr =00000000  data =00000000                 rd=00000
WB  stage  IR=00000000  read =00000000  pass =00000000 result=00000000 rd=00000
control RegDst=1  ALUSrc=0  MemtoReg=0  MEMRead=0  MEMWrite=0  WB_write_enb=0
reg 0-7 00000000 00000000 00000000 00000000 00000000 00000000 00000000 00000000 
   8-15 00000000 00000000 00000000 00000000 00000000 00000000 00000000 00000000 
  16-23 00000000 00000000 00000000 00000000 00000000 00000000 00000000 00000000 
RAM 70- 11111111 22222222 33333333 44444444 55555555 66666666 00000000 00000000 

line=0  V=0  tag=000000  w0=00000000  w1=00000000  w2=00000000  w3=00000000
line=1  V=0  tag=000000  w0=00000000  w1=00000000  w2=00000000  w3=00000000
line=2  V=0  tag=000000  w0=00000000  w1=00000000  w2=00000000  w3=00000000
line=3  V=0  tag=000000  w0=00000000  w1=00000000  w2=00000000  w3=00000000
clock 2  inst=00000000  PC   =00000000 PCnext=00000004
ID  stage  IR=00000000                                                 rd=00000
EX  stage  IR=00000000  EX_A =00000000  EX_B =00000000  EX_C =00000000 rd=00000
EX  stage             EX_aluB=00000000 EX_res=00000000
MEM stage  IR=00000000  addr =00000000  data =00000000                 rd=00000
WB  stage  IR=00000000  read =00000000  pass =00000000 result=00000000 rd=00000
control RegDst=1  ALUSrc=0  MemtoReg=0  MEMRead=0  MEMWrite=0  WB_write_enb=0
reg 0-7 00000000 00000000 00000000 00000000 00000000 00000000 00000000 00000000 
   8-15 00000000 00000000 00000000 00000000 00000000 00000000 00000000 00000000 
  16-23 00000000 00000000 00000000 00000000 00000000 00000000 00000000 00000000 
RAM 70- 11111111 22222222 33333333 44444444 55555555 66666666 00000000 00000000 

line=0  V=0  tag=000000  w0=00000000  w1=00000000  w2=00000000  w3=00000000
line=1  V=0  tag=000000  w0=00000000  w1=00000000  w2=00000000  w3=00000000
line=2  V=0  tag=000000  w0=00000000  w1=00000000  w2=00000000  w3=00000000
line=3  V=0  tag=000000  w0=00000000  w1=00000000  w2=00000000  w3=00000000
stall=0clk=3 at=30.2 ns
clock 3  inst=8C010074  PC   =00000000 PCnext=00000004
ID  stage  IR=00000000                                                 rd=00000
EX  stage  IR=00000000  EX_A =00000000  EX_B =00000000  EX_C =00000000 rd=00000
EX  stage             EX_aluB=00000000 EX_res=00000000
MEM stage  IR=00000000  addr =00000000  data =00000000                 rd=00000
WB  stage  IR=00000000  read =00000000  pass =00000000 result=00000000 rd=00000
control RegDst=1  ALUSrc=0  MemtoReg=0  MEMRead=0  MEMWrite=0  WB_write_enb=0
reg 0-7 00000000 00000000 00000000 00000000 00000000 00000000 00000000 00000000 
   8-15 00000000 00000000 00000000 00000000 00000000 00000000 00000000 00000000 
  16-23 00000000 00000000 00000000 00000000 00000000 00000000 00000000 00000000 
RAM 70- 11111111 22222222 33333333 44444444 55555555 66666666 00000000 00000000 

line=0  V=0  tag=000000  w0=00000000  w1=00000000  w2=00000000  w3=00000000
line=1  V=0  tag=000000  w0=00000000  w1=00000000  w2=00000000  w3=00000000
line=2  V=0  tag=000000  w0=00000000  w1=00000000  w2=00000000  w3=00000000
line=3  V=0  tag=000000  w0=00000000  w1=00000000  w2=00000000  w3=00000000
clock 4  inst=8C020078  PC   =00000004 PCnext=00000008
ID  stage  IR=8C010074                                                 rd=00001
EX  stage  IR=00000000  EX_A =00000000  EX_B =00000000  EX_C =00000000 rd=00000
EX  stage             EX_aluB=00000000 EX_res=00000000
MEM stage  IR=00000000  addr =00000000  data =00000000                 rd=00000
WB  stage  IR=00000000  read =00000000  pass =00000000 result=00000000 rd=00000
control RegDst=0  ALUSrc=0  MemtoReg=0  MEMRead=0  MEMWrite=0  WB_write_enb=0
reg 0-7 00000000 00000000 00000000 00000000 00000000 00000000 00000000 00000000 
   8-15 00000000 00000000 00000000 00000000 00000000 00000000 00000000 00000000 
  16-23 00000000 00000000 00000000 00000000 00000000 00000000 00000000 00000000 
RAM 70- 11111111 22222222 33333333 44444444 55555555 66666666 00000000 00000000 

line=0  V=0  tag=000000  w0=00000000  w1=00000000  w2=00000000  w3=00000000
line=1  V=0  tag=000000  w0=00000000  w1=00000000  w2=00000000  w3=00000000
line=2  V=0  tag=000000  w0=00000000  w1=00000000  w2=00000000  w3=00000000
line=3  V=0  tag=000000  w0=00000000  w1=00000000  w2=00000000  w3=00000000
clock 5  inst=00221820  PC   =00000008 PCnext=0000000C
ID  stage  IR=8C020078                                                 rd=00010
EX  stage  IR=8C010074  EX_A =00000000  EX_B =00000000  EX_C =00000074 rd=00001
EX  stage             EX_aluB=00000074 EX_res=00000074
MEM stage  IR=00000000  addr =00000000  data =00000000                 rd=00000
WB  stage  IR=00000000  read =00000000  pass =00000000 result=00000000 rd=00000
control RegDst=0  ALUSrc=1  MemtoReg=0  MEMRead=0  MEMWrite=0  WB_write_enb=0
reg 0-7 00000000 00000000 00000000 00000000 00000000 00000000 00000000 00000000 
   8-15 00000000 00000000 00000000 00000000 00000000 00000000 00000000 00000000 
  16-23 00000000 00000000 00000000 00000000 00000000 00000000 00000000 00000000 
RAM 70- 11111111 22222222 33333333 44444444 55555555 66666666 00000000 00000000 

line=0  V=0  tag=000000  w0=00000000  w1=00000000  w2=00000000  w3=00000000
line=1  V=0  tag=000000  w0=00000000  w1=00000000  w2=00000000  w3=00000000
line=2  V=0  tag=000000  w0=00000000  w1=00000000  w2=00000000  w3=00000000
line=3  V=0  tag=000000  w0=00000000  w1=00000000  w2=00000000  w3=00000000
stall=1clk=6 at=60.45 ns
stall=0clk=6 at=60.65 ns
stall=1clk=6 at=60.65 ns
clock 6  inst=00222022  PC   =0000000C PCnext=00000010
ID  stage  IR=00221820                                                 rd=00000
EX  stage  IR=8C020078  EX_A =00000000  EX_B =00000000  EX_C =00000078 rd=00010
EX  stage             EX_aluB=00000078 EX_res=00000078
MEM stage  IR=8C010074  addr =00000074  data =00000000  read =00000000 rd=00001
WB  stage  IR=00000000  read =00000000  pass =00000000 result=00000000 rd=00000
control RegDst=1  ALUSrc=1  MemtoReg=0  MEMRead=1  MEMWrite=0  WB_write_enb=0
reg 0-7 00000000 00000000 00000000 00000000 00000000 00000000 00000000 00000000 
   8-15 00000000 00000000 00000000 00000000 00000000 00000000 00000000 00000000 
  16-23 00000000 00000000 00000000 00000000 00000000 00000000 00000000 00000000 
RAM 70- 11111111 22222222 33333333 44444444 55555555 66666666 00000000 00000000 

line=0  V=0  tag=000000  w0=00000000  w1=00000000  w2=00000000  w3=00000000
line=1  V=0  tag=000000  w0=00000000  w1=00000000  w2=00000000  w3=00000000
line=2  V=0  tag=000000  w0=00000000  w1=00000000  w2=00000000  w3=00000000
line=3  V=0  tag=000000  w0=00000000  w1=00000000  w2=00000000  w3=00000000
clock 7  inst=00222022  PC   =0000000C PCnext=00000010
ID  stage  IR=00221820                                                 rd=00000
EX  stage  IR=8C020078  EX_A =00000000  EX_B =00000000  EX_C =00000078 rd=00010
EX  stage             EX_aluB=00000078 EX_res=00000078
MEM stage  IR=8C010074  addr =00000074  data =00000000  read =00000000 rd=00001
WB  stage  IR=00000000  read =00000000  pass =00000000 result=00000000 rd=00000
control RegDst=1  ALUSrc=1  MemtoReg=0  MEMRead=1  MEMWrite=0  WB_write_enb=0
reg 0-7 00000000 00000000 00000000 00000000 00000000 00000000 00000000 00000000 
   8-15 00000000 00000000 00000000 00000000 00000000 00000000 00000000 00000000 
  16-23 00000000 00000000 00000000 00000000 00000000 00000000 00000000 00000000 
RAM 70- 11111111 22222222 33333333 44444444 55555555 66666666 00000000 00000000 

line=0  V=0  tag=000000  w0=00000000  w1=00000000  w2=00000000  w3=00000000
line=1  V=0  tag=000000  w0=00000000  w1=00000000  w2=00000000  w3=00000000
line=2  V=0  tag=000000  w0=00000000  w1=00000000  w2=00000000  w3=00000000
line=3  V=0  tag=000000  w0=00000000  w1=00000000  w2=00000000  w3=00000000
clock 8  inst=00222022  PC   =0000000C PCnext=00000010
ID  stage  IR=00221820                                                 rd=00000
EX  stage  IR=8C020078  EX_A =00000000  EX_B =00000000  EX_C =00000078 rd=00010
EX  stage             EX_aluB=00000078 EX_res=00000078
MEM stage  IR=8C010074  addr =00000074  data =00000000  read =00000000 rd=00001
WB  stage  IR=00000000  read =00000000  pass =00000000 result=00000000 rd=00000
control RegDst=1  ALUSrc=1  MemtoReg=0  MEMRead=1  MEMWrite=0  WB_write_enb=0
reg 0-7 00000000 00000000 00000000 00000000 00000000 00000000 00000000 00000000 
   8-15 00000000 00000000 00000000 00000000 00000000 00000000 00000000 00000000 
  16-23 00000000 00000000 00000000 00000000 00000000 00000000 00000000 00000000 
RAM 70- 11111111 22222222 33333333 44444444 55555555 66666666 00000000 00000000 

line=0  V=0  tag=000000  w0=00000000  w1=00000000  w2=00000000  w3=00000000
line=1  V=0  tag=000000  w0=00000000  w1=00000000  w2=00000000  w3=00000000
line=2  V=0  tag=000000  w0=00000000  w1=00000000  w2=00000000  w3=00000000
line=3  V=0  tag=000000  w0=00000000  w1=00000000  w2=00000000  w3=00000000
clock 9  inst=00222022  PC   =0000000C PCnext=00000010
ID  stage  IR=00221820                                                 rd=00000
EX  stage  IR=8C020078  EX_A =00000000  EX_B =00000000  EX_C =00000078 rd=00010
EX  stage             EX_aluB=00000078 EX_res=00000078
MEM stage  IR=8C010074  addr =00000074  data =00000000  read =22222222 rd=00001
WB  stage  IR=00000000  read =00000000  pass =00000000 result=00000000 rd=00000
control RegDst=1  ALUSrc=1  MemtoReg=0  MEMRead=1  MEMWrite=0  WB_write_enb=0
reg 0-7 00000000 00000000 00000000 00000000 00000000 00000000 00000000 00000000 
   8-15 00000000 00000000 00000000 00000000 00000000 00000000 00000000 00000000 
  16-23 00000000 00000000 00000000 00000000 00000000 00000000 00000000 00000000 
RAM 70- 11111111 22222222 33333333 44444444 55555555 66666666 00000000 00000000 

line=0  V=0  tag=000000  w0=00000000  w1=00000000  w2=00000000  w3=00000000
line=1  V=0  tag=000000  w0=00000000  w1=00000000  w2=00000000  w3=00000000
line=2  V=0  tag=000000  w0=00000000  w1=00000000  w2=00000000  w3=00000000
line=3  V=1  tag=000001  w0=11111111  w1=22222222  w2=33333333  w3=44444444
stall=0clk=10 at=100.65 ns
clock 10  inst=00222022  PC   =0000000C PCnext=00000010
ID  stage  IR=00221820  write=22222222  into =00000001                 rd=00011
EX  stage  IR=00000000  EX_A =00000000  EX_B =00000000  EX_C =00001820 rd=00000
EX  stage             EX_aluB=00000000 EX_res=00000000
MEM stage  IR=8C020078  addr =00000078  data =00000000  read =33333333 rd=00010
WB  stage  IR=8C010074  read =22222222  pass =00000074 result=22222222 rd=00001
control RegDst=1  ALUSrc=0  MemtoReg=1  MEMRead=1  MEMWrite=0  WB_write_enb=1
reg 0-7 00000000 22222222 00000000 00000000 00000000 00000000 00000000 00000000 
   8-15 00000000 00000000 00000000 00000000 00000000 00000000 00000000 00000000 
  16-23 00000000 00000000 00000000 00000000 00000000 00000000 00000000 00000000 
RAM 70- 11111111 22222222 33333333 44444444 55555555 66666666 00000000 00000000 

line=0  V=0  tag=000000  w0=00000000  w1=00000000  w2=00000000  w3=00000000
line=1  V=0  tag=000000  w0=00000000  w1=00000000  w2=00000000  w3=00000000
line=2  V=0  tag=000000  w0=00000000  w1=00000000  w2=00000000  w3=00000000
line=3  V=1  tag=000001  w0=11111111  w1=22222222  w2=33333333  w3=44444444
stall=1clk=11 at=110.45 ns
clock 11  inst=00000000  PC   =00000010 PCnext=00000014
ID  stage  IR=00222022  write=33333333  into =00000002                 rd=00000
EX  stage  IR=00221820  EX_A =22222222  EX_B =00000000  EX_C =00001820 rd=00011
EX  stage             EX_aluB=33333333 EX_res=55555555
MEM stage  IR=00000000  addr =00000000  data =00000000                 rd=00000
WB  stage  IR=8C020078  read =33333333  pass =00000078 result=33333333 rd=00010
control RegDst=1  ALUSrc=0  MemtoReg=1  MEMRead=0  MEMWrite=0  WB_write_enb=1
reg 0-7 00000000 22222222 33333333 00000000 00000000 00000000 00000000 00000000 
   8-15 00000000 00000000 00000000 00000000 00000000 00000000 00000000 00000000 
  16-23 00000000 00000000 00000000 00000000 00000000 00000000 00000000 00000000 
RAM 70- 11111111 22222222 33333333 44444444 55555555 66666666 00000000 00000000 

line=0  V=0  tag=000000  w0=00000000  w1=00000000  w2=00000000  w3=00000000
line=1  V=0  tag=000000  w0=00000000  w1=00000000  w2=00000000  w3=00000000
line=2  V=0  tag=000000  w0=00000000  w1=00000000  w2=00000000  w3=00000000
line=3  V=1  tag=000001  w0=11111111  w1=22222222  w2=33333333  w3=44444444
clock 12  inst=00000000  PC   =00000010 PCnext=00000014
ID  stage  IR=00222022  write=33333333  into =00000002                 rd=00000
EX  stage  IR=00221820  EX_A =22222222  EX_B =00000000  EX_C =00001820 rd=00011
EX  stage             EX_aluB=33333333 EX_res=55555555
MEM stage  IR=00000000  addr =00000000  data =00000000                 rd=00000
WB  stage  IR=8C020078  read =33333333  pass =00000078 result=33333333 rd=00010
control RegDst=1  ALUSrc=0  MemtoReg=1  MEMRead=0  MEMWrite=0  WB_write_enb=1
reg 0-7 00000000 22222222 33333333 00000000 00000000 00000000 00000000 00000000 
   8-15 00000000 00000000 00000000 00000000 00000000 00000000 00000000 00000000 
  16-23 00000000 00000000 00000000 00000000 00000000 00000000 00000000 00000000 
RAM 70- 11111111 22222222 33333333 44444444 55555555 66666666 00000000 00000000 

line=0  V=0  tag=000000  w0=00000000  w1=00000000  w2=00000000  w3=00000000
line=1  V=0  tag=000000  w0=00000000  w1=00000000  w2=00000000  w3=00000000
line=2  V=0  tag=000000  w0=00000000  w1=00000000  w2=00000000  w3=00000000
line=3  V=1  tag=000001  w0=11111111  w1=22222222  w2=33333333  w3=44444444
clock 13  inst=00000000  PC   =00000010 PCnext=00000014
ID  stage  IR=00222022  write=33333333  into =00000002                 rd=00000
EX  stage  IR=00221820  EX_A =22222222  EX_B =00000000  EX_C =00001820 rd=00011
EX  stage             EX_aluB=33333333 EX_res=55555555
MEM stage  IR=00000000  addr =00000000  data =00000000                 rd=00000
WB  stage  IR=8C020078  read =33333333  pass =00000078 result=33333333 rd=00010
control RegDst=1  ALUSrc=0  MemtoReg=1  MEMRead=0  MEMWrite=0  WB_write_enb=1
reg 0-7 00000000 22222222 33333333 00000000 00000000 00000000 00000000 00000000 
   8-15 00000000 00000000 00000000 00000000 00000000 00000000 00000000 00000000 
  16-23 00000000 00000000 00000000 00000000 00000000 00000000 00000000 00000000 
RAM 70- 11111111 22222222 33333333 44444444 55555555 66666666 00000000 00000000 

line=0  V=0  tag=000000  w0=00000000  w1=00000000  w2=00000000  w3=00000000
line=1  V=0  tag=000000  w0=00000000  w1=00000000  w2=00000000  w3=00000000
line=2  V=0  tag=000000  w0=00000000  w1=00000000  w2=00000000  w3=00000000
line=3  V=1  tag=000001  w0=11111111  w1=22222222  w2=33333333  w3=44444444
stall=0clk=14 at=140.65 ns
clock 14  inst=00012BC4  PC   =00000010 PCnext=00000014
ID  stage  IR=00222022  write=33333333  into =00000002                 rd=00100
EX  stage  IR=00221820  EX_A =22222222  EX_B =00000000  EX_C =00001820 rd=00011
EX  stage             EX_aluB=33333333 EX_res=55555555
MEM stage  IR=00000000  addr =00000000  data =00000000                 rd=00000
WB  stage  IR=8C020078  read =33333333  pass =00000078 result=33333333 rd=00010
control RegDst=1  ALUSrc=0  MemtoReg=1  MEMRead=0  MEMWrite=0  WB_write_enb=1
reg 0-7 00000000 22222222 33333333 00000000 00000000 00000000 00000000 00000000 
   8-15 00000000 00000000 00000000 00000000 00000000 00000000 00000000 00000000 
  16-23 00000000 00000000 00000000 00000000 00000000 00000000 00000000 00000000 
RAM 70- 11111111 22222222 33333333 44444444 55555555 66666666 00000000 00000000 

line=0  V=1  tag=000000  w0=8C010074  w1=8C020078  w2=00221820  w3=00222022
line=1  V=0  tag=000000  w0=00000000  w1=00000000  w2=00000000  w3=00000000
line=2  V=0  tag=000000  w0=00000000  w1=00000000  w2=00000000  w3=00000000
line=3  V=1  tag=000001  w0=11111111  w1=22222222  w2=33333333  w3=44444444
clock 15  inst=00023402  PC   =00000014 PCnext=00000018
ID  stage  IR=00012BC4                                                 rd=00101
EX  stage  IR=00222022  EX_A =22222222  EX_B =33333333  EX_C =00002022 rd=00100
EX  stage             EX_aluB=33333333 EX_res=EEEEEEEF
MEM stage  IR=00221820  addr =55555555  data =33333333                 rd=00011
WB  stage  IR=00000000  read =8C010074  pass =00000000 result=00000000 rd=00000
control RegDst=1  ALUSrc=0  MemtoReg=0  MEMRead=0  MEMWrite=0  WB_write_enb=0
reg 0-7 00000000 22222222 33333333 00000000 00000000 00000000 00000000 00000000 
   8-15 00000000 00000000 00000000 00000000 00000000 00000000 00000000 00000000 
  16-23 00000000 00000000 00000000 00000000 00000000 00000000 00000000 00000000 
RAM 70- 11111111 22222222 33333333 44444444 55555555 66666666 00000000 00000000 

line=0  V=1  tag=000000  w0=8C010074  w1=8C020078  w2=00221820  w3=00222022
line=1  V=0  tag=000000  w0=00000000  w1=00000000  w2=00000000  w3=00000000
line=2  V=0  tag=000000  w0=00000000  w1=00000000  w2=00000000  w3=00000000
line=3  V=1  tag=000001  w0=11111111  w1=22222222  w2=33333333  w3=44444444
clock 16  inst=0005380B  PC   =00000018 PCnext=0000001C
ID  stage  IR=00023402  write=55555555  into =00000003                 rd=00110
EX  stage  IR=00012BC4  EX_A =00000000  EX_B =22222222  EX_C =00002BC4 rd=00101
EX  stage             EX_aluB=22222222 EX_res=11110000
MEM stage  IR=00222022  addr =EEEEEEEF  data =33333333                 rd=00100
WB  stage  IR=00221820  read =8C010074  pass =55555555 result=55555555 rd=00011
control RegDst=1  ALUSrc=0  MemtoReg=0  MEMRead=0  MEMWrite=0  WB_write_enb=1
reg 0-7 00000000 22222222 33333333 55555555 00000000 00000000 00000000 00000000 
   8-15 00000000 00000000 00000000 00000000 00000000 00000000 00000000 00000000 
  16-23 00000000 00000000 00000000 00000000 00000000 00000000 00000000 00000000 
RAM 70- 11111111 22222222 33333333 44444444 55555555 66666666 00000000 00000000 

line=0  V=1  tag=000000  w0=8C010074  w1=8C020078  w2=00221820  w3=00222022
line=1  V=0  tag=000000  w0=00000000  w1=00000000  w2=00000000  w3=00000000
line=2  V=0  tag=000000  w0=00000000  w1=00000000  w2=00000000  w3=00000000
line=3  V=1  tag=000001  w0=11111111  w1=22222222  w2=33333333  w3=44444444
clock 17  inst=AC010080  PC   =0000001C PCnext=00000020
ID  stage  IR=0005380B  write=EEEEEEEF  into =00000004                 rd=00111
EX  stage  IR=00023402  EX_A =00000000  EX_B =33333333  EX_C =00003402 rd=00110
EX  stage             EX_aluB=33333333 EX_res=00003333
MEM stage  IR=00012BC4  addr =11110000  data =22222222                 rd=00101
WB  stage  IR=00222022  read =8C010074  pass =EEEEEEEF result=EEEEEEEF rd=00100
control RegDst=1  ALUSrc=0  MemtoReg=0  MEMRead=0  MEMWrite=0  WB_write_enb=1
reg 0-7 00000000 22222222 33333333 55555555 EEEEEEEF 00000000 00000000 00000000 
   8-15 00000000 00000000 00000000 00000000 00000000 00000000 00000000 00000000 
  16-23 00000000 00000000 00000000 00000000 00000000 00000000 00000000 00000000 
RAM 70- 11111111 22222222 33333333 44444444 55555555 66666666 00000000 00000000 

line=0  V=1  tag=000000  w0=8C010074  w1=8C020078  w2=00221820  w3=00222022
line=1  V=0  tag=000000  w0=00000000  w1=00000000  w2=00000000  w3=00000000
line=2  V=0  tag=000000  w0=00000000  w1=00000000  w2=00000000  w3=00000000
line=3  V=1  tag=000001  w0=11111111  w1=22222222  w2=33333333  w3=44444444
stall=1clk=18 at=180.45 ns
clock 18  inst=00000000  PC   =00000020 PCnext=00000024
ID  stage  IR=AC010080  write=11110000  into =00000005                 rd=00000
EX  stage  IR=0005380B  EX_A =00000000  EX_B =00000000  EX_C =0000380B rd=00111
EX  stage             EX_aluB=11110000 EX_res=EEEEFFFF
MEM stage  IR=00023402  addr =00003333  data =33333333                 rd=00110
WB  stage  IR=00012BC4  read =8C010074  pass =11110000 result=11110000 rd=00101
control RegDst=0  ALUSrc=0  MemtoReg=0  MEMRead=0  MEMWrite=0  WB_write_enb=1
reg 0-7 00000000 22222222 33333333 55555555 EEEEEEEF 11110000 00000000 00000000 
   8-15 00000000 00000000 00000000 00000000 00000000 00000000 00000000 00000000 
  16-23 00000000 00000000 00000000 00000000 00000000 00000000 00000000 00000000 
RAM 70- 11111111 22222222 33333333 44444444 55555555 66666666 00000000 00000000 

line=0  V=1  tag=000000  w0=8C010074  w1=8C020078  w2=00221820  w3=00222022
line=1  V=0  tag=000000  w0=00000000  w1=00000000  w2=00000000  w3=00000000
line=2  V=0  tag=000000  w0=00000000  w1=00000000  w2=00000000  w3=00000000
line=3  V=1  tag=000001  w0=11111111  w1=22222222  w2=33333333  w3=44444444
clock 19  inst=00000000  PC   =00000020 PCnext=00000024
ID  stage  IR=AC010080  write=00003333  into =00000006                 rd=00000
EX  stage  IR=00000000  EX_A =00000000  EX_B =22222222  EX_C =00000080 rd=00000
EX  stage             EX_aluB=22222222 EX_res=22222222
MEM stage  IR=0005380B  addr =EEEEFFFF  data =11110000                 rd=00111
WB  stage  IR=00023402  read =8C010074  pass =00003333 result=00003333 rd=00110
control RegDst=0  ALUSrc=0  MemtoReg=0  MEMRead=0  MEMWrite=0  WB_write_enb=1
reg 0-7 00000000 22222222 33333333 55555555 EEEEEEEF 11110000 00003333 00000000 
   8-15 00000000 00000000 00000000 00000000 00000000 00000000 00000000 00000000 
  16-23 00000000 00000000 00000000 00000000 00000000 00000000 00000000 00000000 
RAM 70- 11111111 22222222 33333333 44444444 55555555 66666666 00000000 00000000 

line=0  V=1  tag=000000  w0=8C010074  w1=8C020078  w2=00221820  w3=00222022
line=1  V=0  tag=000000  w0=00000000  w1=00000000  w2=00000000  w3=00000000
line=2  V=0  tag=000000  w0=00000000  w1=00000000  w2=00000000  w3=00000000
line=3  V=1  tag=000001  w0=11111111  w1=22222222  w2=33333333  w3=44444444
clock 20  inst=00000000  PC   =00000020 PCnext=00000024
ID  stage  IR=AC010080  write=EEEEFFFF  into =00000007                 rd=00000
EX  stage  IR=00000000  EX_A =00000000  EX_B =22222222  EX_C =00000080 rd=00000
EX  stage             EX_aluB=22222222 EX_res=22222222
MEM stage  IR=00000000  addr =22222222  data =22222222                 rd=00000
WB  stage  IR=0005380B  read =8C010074  pass =EEEEFFFF result=EEEEFFFF rd=00111
control RegDst=0  ALUSrc=0  MemtoReg=0  MEMRead=0  MEMWrite=0  WB_write_enb=1
reg 0-7 00000000 22222222 33333333 55555555 EEEEEEEF 11110000 00003333 EEEEFFFF 
   8-15 00000000 00000000 00000000 00000000 00000000 00000000 00000000 00000000 
  16-23 00000000 00000000 00000000 00000000 00000000 00000000 00000000 00000000 
RAM 70- 11111111 22222222 33333333 44444444 55555555 66666666 00000000 00000000 

line=0  V=1  tag=000000  w0=8C010074  w1=8C020078  w2=00221820  w3=00222022
line=1  V=0  tag=000000  w0=00000000  w1=00000000  w2=00000000  w3=00000000
line=2  V=0  tag=000000  w0=00000000  w1=00000000  w2=00000000  w3=00000000
line=3  V=1  tag=000001  w0=11111111  w1=22222222  w2=33333333  w3=44444444
stall=0clk=21 at=210.45 ns
clock 21  inst=30A80070  PC   =00000020 PCnext=00000024
ID  stage  IR=AC010080                                                 rd=00000
EX  stage  IR=00000000  EX_A =00000000  EX_B =22222222  EX_C =00000080 rd=00000
EX  stage             EX_aluB=22222222 EX_res=22222222
MEM stage  IR=00000000  addr =22222222  data =22222222                 rd=00000
WB  stage  IR=00000000  read =8C010074  pass =22222222 result=22222222 rd=00000
control RegDst=0  ALUSrc=0  MemtoReg=0  MEMRead=0  MEMWrite=0  WB_write_enb=0
reg 0-7 00000000 22222222 33333333 55555555 EEEEEEEF 11110000 00003333 EEEEFFFF 
   8-15 00000000 00000000 00000000 00000000 00000000 00000000 00000000 00000000 
  16-23 00000000 00000000 00000000 00000000 00000000 00000000 00000000 00000000 
RAM 70- 11111111 22222222 33333333 44444444 55555555 66666666 00000000 00000000 

line=0  V=1  tag=000000  w0=8C010074  w1=8C020078  w2=00221820  w3=00222022
line=1  V=0  tag=000000  w0=00000000  w1=00000000  w2=00000000  w3=00000000
line=2  V=0  tag=000000  w0=00000000  w1=00000000  w2=00000000  w3=00000000
line=3  V=1  tag=000001  w0=11111111  w1=22222222  w2=33333333  w3=44444444
clock 22  inst=8C0F0070  PC   =00000024 PCnext=00000028
ID  stage  IR=30A80070                                                 rd=01000
EX  stage  IR=AC010080  EX_A =00000000  EX_B =22222222  EX_C =00000080 rd=00000
EX  stage             EX_aluB=00000080 EX_res=00000080
MEM stage  IR=00000000  addr =22222222  data =22222222                 rd=00000
WB  stage  IR=00000000  read =8C010074  pass =22222222 result=22222222 rd=00000
control RegDst=0  ALUSrc=1  MemtoReg=0  MEMRead=0  MEMWrite=0  WB_write_enb=0
reg 0-7 00000000 22222222 33333333 55555555 EEEEEEEF 11110000 00003333 EEEEFFFF 
   8-15 00000000 00000000 00000000 00000000 00000000 00000000 00000000 00000000 
  16-23 00000000 00000000 00000000 00000000 00000000 00000000 00000000 00000000 
RAM 70- 11111111 22222222 33333333 44444444 55555555 66666666 00000000 00000000 

line=0  V=1  tag=000000  w0=8C010074  w1=8C020078  w2=00221820  w3=00222022
line=1  V=0  tag=000000  w0=00000000  w1=00000000  w2=00000000  w3=00000000
line=2  V=0  tag=000000  w0=00000000  w1=00000000  w2=00000000  w3=00000000
line=3  V=1  tag=000001  w0=11111111  w1=22222222  w2=33333333  w3=44444444
clock 23  inst=8C100074  PC   =00000028 PCnext=0000002C
ID  stage  IR=8C0F0070                                                 rd=01111
