vhdl2/hw6/pmul16_test.out
ncsim: 15.20-s035: (c) Copyright 1995-2017 Cadence Design Systems, Inc.
TOOL:	ncsim	15.20-s035: Started on Nov 18, 2020 at 14:20:14 EST
ncsim
    -input pmul16_test.run
    -batch
    -logfile pmul16_test.out
    -messages
    -cdslib /afs/umbc.edu/users/b/c/bcain1/home/cs411/vhdl2/cds.lib
    -hdlvar /afs/umbc.edu/users/b/c/bcain1/home/cs411/vhdl2/hdl.var
    pmul16_test

Loading snapshot vhdl.pmul16_test:circuits .................... Done
ncsim> run 8704 ns
Driver starting.
a=0000000000000000, b=0000000000000000,  p=00000000000000000000000000000000, cntr=00000000,  at=33 ns
a=0001000100010001, b=0000000000000000,  p=00000000000000000000000000000000, cntr=00000001,  at=67 ns
a=0010001000100010, b=0000000000000000,  p=00000000000000000000000000000000, cntr=00000010,  at=101 ns
a=0011001100110011, b=0000000000000000,  p=00000000000000000000000000000000, cntr=00000011,  at=135 ns
a=0100010001000100, b=0000000000000000,  p=00000000000000000000000000000000, cntr=00000100,  at=169 ns
a=0101010101010101, b=0000000000000000,  p=00000000000000000000000000000000, cntr=00000101,  at=203 ns
a=0110011001100110, b=0000000000000000,  p=00000000000000000000000000000000, cntr=00000110,  at=237 ns
a=0111011101110111, b=0000000000000000,  p=00000000000000000000000000000000, cntr=00000111,  at=271 ns
a=1000100010001000, b=0000000000000000,  p=00000000000000000000000000000000, cntr=00001000,  at=305 ns
a=1001100110011001, b=0000000000000000,  p=00000000000000000000000000000000, cntr=00001001,  at=339 ns
a=1010101010101010, b=0000000000000000,  p=00000000000000000000000000000000, cntr=00001010,  at=373 ns
a=1011101110111011, b=0000000000000000,  p=00000000000000000000000000000000, cntr=00001011,  at=407 ns
a=1100110011001100, b=0000000000000000,  p=00000000000000000000000000000000, cntr=00001100,  at=441 ns
a=1101110111011101, b=0000000000000000,  p=00000000000000000000000000000000, cntr=00001101,  at=475 ns
a=1110111011101110, b=0000000000000000,  p=00000000000000000000000000000000, cntr=00001110,  at=509 ns
a=1111111111111111, b=0000000000000000,  p=00000000000000000000000000000000, cntr=00001111,  at=543 ns
a=0000000000000000, b=0001000100010001,  p=00000000000000000000000000000000, cntr=00010000,  at=577 ns
a=0001000100010001, b=0001000100010001,  p=00000001001000110100001100100001, cntr=00010001,  at=611 ns
a=0010001000100010, b=0001000100010001,  p=00000010010001101000011001000010, cntr=00010010,  at=645 ns
a=0011001100110011, b=0001000100010001,  p=00000011011010011100100101100011, cntr=00010011,  at=679 ns
a=0100010001000100, b=0001000100010001,  p=00000100100011010000110010000100, cntr=00010100,  at=713 ns
a=0101010101010101, b=0001000100010001,  p=00000101101100000100111110100101, cntr=00010101,  at=747 ns
a=0110011001100110, b=0001000100010001,  p=00000110110100111001001011000110, cntr=00010110,  at=781 ns
a=0111011101110111, b=0001000100010001,  p=00000111111101101101010111100111, cntr=00010111,  at=815 ns
a=1000100010001000, b=0001000100010001,  p=00001001000110100001100100001000, cntr=00011000,  at=849 ns
a=1001100110011001, b=0001000100010001,  p=00001010001111010101110000101001, cntr=00011001,  at=883 ns
a=1010101010101010, b=0001000100010001,  p=00001011011000001001111101001010, cntr=00011010,  at=917 ns
a=1011101110111011, b=0001000100010001,  p=00001100100000111110001001101011, cntr=00011011,  at=951 ns
a=1100110011001100, b=0001000100010001,  p=00001101101001110010010110001100, cntr=00011100,  at=985 ns
a=1101110111011101, b=0001000100010001,  p=00001110110010100110100010101101, cntr=00011101,  at=1019 ns
a=1110111011101110, b=0001000100010001,  p=00001111111011011010101111001110, cntr=00011110,  at=1053 ns
a=1111111111111111, b=0001000100010001,  p=00010001000100001110111011101111, cntr=00011111,  at=1087 ns
a=0000000000000000, b=0010001000100010,  p=00000000000000000000000000000000, cntr=00100000,  at=1121 ns
a=0001000100010001, b=0010001000100010,  p=00000010010001101000011001000010, cntr=00100001,  at=1155 ns
a=0010001000100010, b=0010001000100010,  p=00000100100011010000110010000100, cntr=00100010,  at=1189 ns
a=0011001100110011, b=0010001000100010,  p=00000110110100111001001011000110, cntr=00100011,  at=1223 ns
a=0100010001000100, b=0010001000100010,  p=00001001000110100001100100001000, cntr=00100100,  at=1257 ns
a=0101010101010101, b=0010001000100010,  p=00001011011000001001111101001010, cntr=00100101,  at=1291 ns
a=0110011001100110, b=0010001000100010,  p=00001101101001110010010110001100, cntr=00100110,  at=1325 ns
a=0111011101110111, b=0010001000100010,  p=00001111111011011010101111001110, cntr=00100111,  at=1359 ns
a=1000100010001000, b=0010001000100010,  p=00010010001101000011001000010000, cntr=00101000,  at=1393 ns
a=1001100110011001, b=0010001000100010,  p=00010100011110101011100001010010, cntr=00101001,  at=1427 ns
a=1010101010101010, b=0010001000100010,  p=00010110110000010011111010010100, cntr=00101010,  at=1461 ns
a=1011101110111011, b=0010001000100010,  p=00011001000001111100010011010110, cntr=00101011,  at=1495 ns
a=1100110011001100, b=0010001000100010,  p=00011011010011100100101100011000, cntr=00101100,  at=1529 ns
a=1101110111011101, b=0010001000100010,  p=00011101100101001101000101011010, cntr=00101101,  at=1563 ns
a=1110111011101110, b=0010001000100010,  p=00011111110110110101011110011100, cntr=00101110,  at=1597 ns
a=1111111111111111, b=0010001000100010,  p=00100010001000011101110111011110, cntr=00101111,  at=1631 ns
a=0000000000000000, b=0011001100110011,  p=00000000000000000000000000000000, cntr=00110000,  at=1665 ns
a=0001000100010001, b=0011001100110011,  p=00000011011010011100100101100011, cntr=00110001,  at=1699 ns
a=0010001000100010, b=0011001100110011,  p=00000110110100111001001011000110, cntr=00110010,  at=1733 ns
a=0011001100110011, b=0011001100110011,  p=00001010001111010101110000101001, cntr=00110011,  at=1767 ns
a=0100010001000100, b=0011001100110011,  p=00001101101001110010010110001100, cntr=00110100,  at=1801 ns
a=0101010101010101, b=0011001100110011,  p=00010001000100001110111011101111, cntr=00110101,  at=1835 ns
a=0110011001100110, b=0011001100110011,  p=00010100011110101011100001010010, cntr=00110110,  at=1869 ns
a=0111011101110111, b=0011001100110011,  p=00010111111001001000000110110101, cntr=00110111,  at=1903 ns
a=1000100010001000, b=0011001100110011,  p=00011011010011100100101100011000, cntr=00111000,  at=1937 ns
a=1001100110011001, b=0011001100110011,  p=00011110101110000001010001111011, cntr=00111001,  at=1971 ns
a=1010101010101010, b=0011001100110011,  p=00100010001000011101110111011110, cntr=00111010,  at=2005 ns
a=1011101110111011, b=0011001100110011,  p=00100101100010111010011101000001, cntr=00111011,  at=2039 ns
a=1100110011001100, b=0011001100110011,  p=00101000111101010111000010100100, cntr=00111100,  at=2073 ns
a=1101110111011101, b=0011001100110011,  p=00101100010111110011101000000111, cntr=00111101,  at=2107 ns
a=1110111011101110, b=0011001100110011,  p=00101111110010010000001101101010, cntr=00111110,  at=2141 ns
a=1111111111111111, b=0011001100110011,  p=00110011001100101100110011001101, cntr=00111111,  at=2175 ns
a=0000000000000000, b=0100010001000100,  p=00000000000000000000000000000000, cntr=01000000,  at=2209 ns
a=0001000100010001, b=0100010001000100,  p=00000100100011010000110010000100, cntr=01000001,  at=2243 ns
a=0010001000100010, b=0100010001000100,  p=00001001000110100001100100001000, cntr=01000010,  at=2277 ns
a=0011001100110011, b=0100010001000100,  p=00001101101001110010010110001100, cntr=01000011,  at=2311 ns
a=0100010001000100, b=0100010001000100,  p=00010010001101000011001000010000, cntr=01000100,  at=2345 ns
a=0101010101010101, b=0100010001000100,  p=00010110110000010011111010010100, cntr=01000101,  at=2379 ns
a=0110011001100110, b=0100010001000100,  p=00011011010011100100101100011000, cntr=01000110,  at=2413 ns
a=0111011101110111, b=0100010001000100,  p=00011111110110110101011110011100, cntr=01000111,  at=2447 ns
a=1000100010001000, b=0100010001000100,  p=00100100011010000110010000100000, cntr=01001000,  at=2481 ns
a=1001100110011001, b=0100010001000100,  p=00101000111101010111000010100100, cntr=01001001,  at=2515 ns
a=1010101010101010, b=0100010001000100,  p=00101101100000100111110100101000, cntr=01001010,  at=2549 ns
a=1011101110111011, b=0100010001000100,  p=00110010000011111000100110101100, cntr=01001011,  at=2583 ns
a=1100110011001100, b=0100010001000100,  p=00110110100111001001011000110000, cntr=01001100,  at=2617 ns
a=1101110111011101, b=0100010001000100,  p=00111011001010011010001010110100, cntr=01001101,  at=2651 ns
a=1110111011101110, b=0100010001000100,  p=00111111101101101010111100111000, cntr=01001110,  at=2685 ns
a=1111111111111111, b=0100010001000100,  p=01000100010000111011101110111100, cntr=01001111,  at=2719 ns
a=0000000000000000, b=0101010101010101,  p=00000000000000000000000000000000, cntr=01010000,  at=2753 ns
a=0001000100010001, b=0101010101010101,  p=00000101101100000100111110100101, cntr=01010001,  at=2787 ns
a=0010001000100010, b=0101010101010101,  p=00001011011000001001111101001010, cntr=01010010,  at=2821 ns
a=0011001100110011, b=0101010101010101,  p=00010001000100001110111011101111, cntr=01010011,  at=2855 ns
a=0100010001000100, b=0101010101010101,  p=00010110110000010011111010010100, cntr=01010100,  at=2889 ns
a=0101010101010101, b=0101010101010101,  p=00011100011100011000111000111001, cntr=01010101,  at=2923 ns
a=0110011001100110, b=0101010101010101,  p=00100010001000011101110111011110, cntr=01010110,  at=2957 ns
a=0111011101110111, b=0101010101010101,  p=00100111110100100010110110000011, cntr=01010111,  at=2991 ns
a=1000100010001000, b=0101010101010101,  p=00101101100000100111110100101000, cntr=01011000,  at=3025 ns
a=1001100110011001, b=0101010101010101,  p=00110011001100101100110011001101, cntr=01011001,  at=3059 ns
a=1010101010101010, b=0101010101010101,  p=00111000111000110001110001110010, cntr=01011010,  at=3093 ns
a=1011101110111011, b=0101010101010101,  p=00111110100100110110110000010111, cntr=01011011,  at=3127 ns
a=1100110011001100, b=0101010101010101,  p=01000100010000111011101110111100, cntr=01011100,  at=3161 ns
a=1101110111011101, b=0101010101010101,  p=01001001111101000000101101100001, cntr=01011101,  at=3195 ns
a=1110111011101110, b=0101010101010101,  p=01001111101001000101101100000110, cntr=01011110,  at=3229 ns
a=1111111111111111, b=0101010101010101,  p=01010101010101001010101010101011, cntr=01011111,  at=3263 ns
a=0000000000000000, b=0110011001100110,  p=00000000000000000000000000000000, cntr=01100000,  at=3297 ns
a=0001000100010001, b=0110011001100110,  p=00000110110100111001001011000110, cntr=01100001,  at=3331 ns
a=0010001000100010, b=0110011001100110,  p=00001101101001110010010110001100, cntr=01100010,  at=3365 ns
a=0011001100110011, b=0110011001100110,  p=00010100011110101011100001010010, cntr=01100011,  at=3399 ns
a=0100010001000100, b=0110011001100110,  p=00011011010011100100101100011000, cntr=01100100,  at=3433 ns
a=0101010101010101, b=0110011001100110,  p=00100010001000011101110111011110, cntr=01100101,  at=3467 ns
a=0110011001100110, b=0110011001100110,  p=00101000111101010111000010100100, cntr=01100110,  at=3501 ns
a=0111011101110111, b=0110011001100110,  p=00101111110010010000001101101010, cntr=01100111,  at=3535 ns
a=1000100010001000, b=0110011001100110,  p=00110110100111001001011000110000, cntr=01101000,  at=3569 ns
a=1001100110011001, b=0110011001100110,  p=00111101011100000010100011110110, cntr=01101001,  at=3603 ns
a=1010101010101010, b=0110011001100110,  p=01000100010000111011101110111100, cntr=01101010,  at=3637 ns
a=1011101110111011, b=0110011001100110,  p=01001011000101110100111010000010, cntr=01101011,  at=3671 ns
a=1100110011001100, b=0110011001100110,  p=01010001111010101110000101001000, cntr=01101100,  at=3705 ns
a=1101110111011101, b=0110011001100110,  p=01011000101111100111010000001110, cntr=01101101,  at=3739 ns
a=1110111011101110, b=0110011001100110,  p=01011111100100100000011011010100, cntr=01101110,  at=3773 ns
a=1111111111111111, b=0110011001100110,  p=01100110011001011001100110011010, cntr=01101111,  at=3807 ns
a=0000000000000000, b=0111011101110111,  p=00000000000000000000000000000000, cntr=01110000,  at=3841 ns
a=0001000100010001, b=0111011101110111,  p=00000111111101101101010111100111, cntr=01110001,  at=3875 ns
a=0010001000100010, b=0111011101110111,  p=00001111111011011010101111001110, cntr=01110010,  at=3909 ns
a=0011001100110011, b=0111011101110111,  p=00010111111001001000000110110101, cntr=01110011,  at=3943 ns
a=0100010001000100, b=0111011101110111,  p=00011111110110110101011110011100, cntr=01110100,  at=3977 ns
a=0101010101010101, b=0111011101110111,  p=00100111110100100010110110000011, cntr=01110101,  at=4011 ns
a=0110011001100110, b=0111011101110111,  p=00101111110010010000001101101010, cntr=01110110,  at=4045 ns
a=0111011101110111, b=0111011101110111,  p=00110111101111111101100101010001, cntr=01110111,  at=4079 ns
a=1000100010001000, b=0111011101110111,  p=00111111101101101010111100111000, cntr=01111000,  at=4113 ns
a=1001100110011001, b=0111011101110111,  p=01000111101011011000010100011111, cntr=01111001,  at=4147 ns
a=1010101010101010, b=0111011101110111,  p=01001111101001000101101100000110, cntr=01111010,  at=4181 ns
a=1011101110111011, b=0111011101110111,  p=01010111100110110011000011101101, cntr=01111011,  at=4215 ns
a=1100110011001100, b=0111011101110111,  p=01011111100100100000011011010100, cntr=01111100,  at=4249 ns
a=1101110111011101, b=0111011101110111,  p=01100111100010001101110010111011, cntr=01111101,  at=4283 ns
a=1110111011101110, b=0111011101110111,  p=01101111011111111011001010100010, cntr=01111110,  at=4317 ns
a=1111111111111111, b=0111011101110111,  p=01110111011101101000100010001001, cntr=01111111,  at=4351 ns
a=0000000000000000, b=1000100010001000,  p=00000000000000000000000000000000, cntr=10000000,  at=4385 ns
a=0001000100010001, b=1000100010001000,  p=00001001000110100001100100001000, cntr=10000001,  at=4419 ns
a=0010001000100010, b=1000100010001000,  p=00010010001101000011001000010000, cntr=10000010,  at=4453 ns
a=0011001100110011, b=1000100010001000,  p=00011011010011100100101100011000, cntr=10000011,  at=4487 ns
a=0100010001000100, b=1000100010001000,  p=00100100011010000110010000100000, cntr=10000100,  at=4521 ns
a=0101010101010101, b=1000100010001000,  p=00101101100000100111110100101000, cntr=10000101,  at=4555 ns
a=0110011001100110, b=1000100010001000,  p=00110110100111001001011000110000, cntr=10000110,  at=4589 ns
a=0111011101110111, b=1000100010001000,  p=00111111101101101010111100111000, cntr=10000111,  at=4623 ns
a=1000100010001000, b=1000100010001000,  p=01001000110100001100100001000000, cntr=10001000,  at=4657 ns
a=1001100110011001, b=1000100010001000,  p=01010001111010101110000101001000, cntr=10001001,  at=4691 ns
a=1010101010101010, b=1000100010001000,  p=01011011000001001111101001010000, cntr=10001010,  at=4725 ns
a=1011101110111011, b=1000100010001000,  p=01100100000111110001001101011000, cntr=10001011,  at=4759 ns
a=1100110011001100, b=1000100010001000,  p=01101101001110010010110001100000, cntr=10001100,  at=4793 ns
a=1101110111011101, b=1000100010001000,  p=01110110010100110100010101101000, cntr=10001101,  at=4827 ns
a=1110111011101110, b=1000100010001000,  p=01111111011011010101111001110000, cntr=10001110,  at=4861 ns
a=1111111111111111, b=1000100010001000,  p=10001000100001110111011101111000, cntr=10001111,  at=4895 ns
a=0000000000000000, b=1001100110011001,  p=00000000000000000000000000000000, cntr=10010000,  at=4929 ns
a=0001000100010001, b=1001100110011001,  p=00001010001111010101110000101001, cntr=10010001,  at=4963 ns
a=0010001000100010, b=1001100110011001,  p=00010100011110101011100001010010, cntr=10010010,  at=4997 ns
a=0011001100110011, b=1001100110011001,  p=00011110101110000001010001111011, cntr=10010011,  at=5031 ns
a=0100010001000100, b=1001100110011001,  p=00101000111101010111000010100100, cntr=10010100,  at=5065 ns
a=0101010101010101, b=1001100110011001,  p=00110011001100101100110011001101, cntr=10010101,  at=5099 ns
a=0110011001100110, b=1001100110011001,  p=00111101011100000010100011110110, cntr=10010110,  at=5133 ns
a=0111011101110111, b=1001100110011001,  p=01000111101011011000010100011111, cntr=10010111,  at=5167 ns
a=1000100010001000, b=1001100110011001,  p=01010001111010101110000101001000, cntr=10011000,  at=5201 ns
a=1001100110011001, b=1001100110011001,  p=01011100001010000011110101110001, cntr=10011001,  at=5235 ns
a=1010101010101010, b=1001100110011001,  p=01100110011001011001100110011010, cntr=10011010,  at=5269 ns
a=1011101110111011, b=1001100110011001,  p=01110000101000101111010111000011, cntr=10011011,  at=5303 ns
a=1100110011001100, b=1001100110011001,  p=01111010111000000101000111101100, cntr=10011100,  at=5337 ns
a=1101110111011101, b=1001100110011001,  p=10000101000111011010111000010101, cntr=10011101,  at=5371 ns
a=1110111011101110, b=1001100110011001,  p=10001111010110110000101000111110, cntr=10011110,  at=5405 ns
a=1111111111111111, b=1001100110011001,  p=10011001100110000110011001100111, cntr=10011111,  at=5439 ns
a=0000000000000000, b=1010101010101010,  p=00000000000000000000000000000000, cntr=10100000,  at=5473 ns
a=0001000100010001, b=1010101010101010,  p=00001011011000001001111101001010, cntr=10100001,  at=5507 ns
a=0010001000100010, b=1010101010101010,  p=00010110110000010011111010010100, cntr=10100010,  at=5541 ns
a=0011001100110011, b=1010101010101010,  p=00100010001000011101110111011110, cntr=10100011,  at=5575 ns
a=0100010001000100, b=1010101010101010,  p=00101101100000100111110100101000, cntr=10100100,  at=5609 ns
a=0101010101010101, b=1010101010101010,  p=00111000111000110001110001110010, cntr=10100101,  at=5643 ns
a=0110011001100110, b=1010101010101010,  p=01000100010000111011101110111100, cntr=10100110,  at=5677 ns
a=0111011101110111, b=1010101010101010,  p=01001111101001000101101100000110, cntr=10100111,  at=5711 ns
a=1000100010001000, b=1010101010101010,  p=01011011000001001111101001010000, cntr=10101000,  at=5745 ns
a=1001100110011001, b=1010101010101010,  p=01100110011001011001100110011010, cntr=10101001,  at=5779 ns
a=1010101010101010, b=1010101010101010,  p=01110001110001100011100011100100, cntr=10101010,  at=5813 ns
a=1011101110111011, b=1010101010101010,  p=01111101001001101101100000101110, cntr=10101011,  at=5847 ns
a=1100110011001100, b=1010101010101010,  p=10001000100001110111011101111000, cntr=10101100,  at=5881 ns
a=1101110111011101, b=1010101010101010,  p=10010011111010000001011011000010, cntr=10101101,  at=5915 ns
a=1110111011101110, b=1010101010101010,  p=10011111010010001011011000001100, cntr=10101110,  at=5949 ns
a=1111111111111111, b=1010101010101010,  p=10101010101010010101010101010110, cntr=10101111,  at=5983 ns
a=0000000000000000, b=1011101110111011,  p=00000000000000000000000000000000, cntr=10110000,  at=6017 ns
a=0001000100010001, b=1011101110111011,  p=00001100100000111110001001101011, cntr=10110001,  at=6051 ns
a=0010001000100010, b=1011101110111011,  p=00011001000001111100010011010110, cntr=10110010,  at=6085 ns
a=0011001100110011, b=1011101110111011,  p=00100101100010111010011101000001, cntr=10110011,  at=6119 ns
a=0100010001000100, b=1011101110111011,  p=00110010000011111000100110101100, cntr=10110100,  at=6153 ns
a=0101010101010101, b=1011101110111011,  p=00111110100100110110110000010111, cntr=10110101,  at=6187 ns
a=0110011001100110, b=1011101110111011,  p=01001011000101110100111010000010, cntr=10110110,  at=6221 ns
a=0111011101110111, b=1011101110111011,  p=01010111100110110011000011101101, cntr=10110111,  at=6255 ns
a=1000100010001000, b=1011101110111011,  p=01100100000111110001001101011000, cntr=10111000,  at=6289 ns
a=1001100110011001, b=1011101110111011,  p=01110000101000101111010111000011, cntr=10111001,  at=6323 ns
a=1010101010101010, b=1011101110111011,  p=01111101001001101101100000101110, cntr=10111010,  at=6357 ns
a=1011101110111011, b=1011101110111011,  p=10001001101010101011101010011001, cntr=10111011,  at=6391 ns
a=1100110011001100, b=1011101110111011,  p=10010110001011101001110100000100, cntr=10111100,  at=6425 ns
a=1101110111011101, b=1011101110111011,  p=10100010101100100111111101101111, cntr=10111101,  at=6459 ns
a=1110111011101110, b=1011101110111011,  p=10101111001101100110000111011010, cntr=10111110,  at=6493 ns
a=1111111111111111, b=1011101110111011,  p=10111011101110100100010001000101, cntr=10111111,  at=6527 ns
a=0000000000000000, b=1100110011001100,  p=00000000000000000000000000000000, cntr=11000000,  at=6561 ns
a=0001000100010001, b=1100110011001100,  p=00001101101001110010010110001100, cntr=11000001,  at=6595 ns
a=0010001000100010, b=1100110011001100,  p=00011011010011100100101100011000, cntr=11000010,  at=6629 ns
a=0011001100110011, b=1100110011001100,  p=00101000111101010111000010100100, cntr=11000011,  at=6663 ns
a=0100010001000100, b=1100110011001100,  p=00110110100111001001011000110000, cntr=11000100,  at=6697 ns
a=0101010101010101, b=1100110011001100,  p=01000100010000111011101110111100, cntr=11000101,  at=6731 ns
a=0110011001100110, b=1100110011001100,  p=01010001111010101110000101001000, cntr=11000110,  at=6765 ns
a=0111011101110111, b=1100110011001100,  p=01011111100100100000011011010100, cntr=11000111,  at=6799 ns
a=1000100010001000, b=1100110011001100,  p=01101101001110010010110001100000, cntr=11001000,  at=6833 ns
a=1001100110011001, b=1100110011001100,  p=01111010111000000101000111101100, cntr=11001001,  at=6867 ns
a=1010101010101010, b=1100110011001100,  p=10001000100001110111011101111000, cntr=11001010,  at=6901 ns
a=1011101110111011, b=1100110011001100,  p=10010110001011101001110100000100, cntr=11001011,  at=6935 ns
a=1100110011001100, b=1100110011001100,  p=10100011110101011100001010010000, cntr=11001100,  at=6969 ns
a=1101110111011101, b=1100110011001100,  p=10110001011111001110100000011100, cntr=11001101,  at=7003 ns
a=1110111011101110, b=1100110011001100,  p=10111111001001000000110110101000, cntr=11001110,  at=7037 ns
a=1111111111111111, b=1100110011001100,  p=11001100110010110011001100110100, cntr=11001111,  at=7071 ns
a=0000000000000000, b=1101110111011101,  p=00000000000000000000000000000000, cntr=11010000,  at=7105 ns
a=0001000100010001, b=1101110111011101,  p=00001110110010100110100010101101, cntr=11010001,  at=7139 ns
a=0010001000100010, b=1101110111011101,  p=00011101100101001101000101011010, cntr=11010010,  at=7173 ns
a=0011001100110011, b=1101110111011101,  p=00101100010111110011101000000111, cntr=11010011,  at=7207 ns
a=0100010001000100, b=1101110111011101,  p=00111011001010011010001010110100, cntr=11010100,  at=7241 ns
a=0101010101010101, b=1101110111011101,  p=01001001111101000000101101100001, cntr=11010101,  at=7275 ns
a=0110011001100110, b=1101110111011101,  p=01011000101111100111010000001110, cntr=11010110,  at=7309 ns
a=0111011101110111, b=1101110111011101,  p=01100111100010001101110010111011, cntr=11010111,  at=7343 ns
a=1000100010001000, b=1101110111011101,  p=01110110010100110100010101101000, cntr=11011000,  at=7377 ns
a=1001100110011001, b=1101110111011101,  p=10000101000111011010111000010101, cntr=11011001,  at=7411 ns
a=1010101010101010, b=1101110111011101,  p=10010011111010000001011011000010, cntr=11011010,  at=7445 ns
a=1011101110111011, b=1101110111011101,  p=10100010101100100111111101101111, cntr=11011011,  at=7479 ns
a=1100110011001100, b=1101110111011101,  p=10110001011111001110100000011100, cntr=11011100,  at=7513 ns
a=1101110111011101, b=1101110111011101,  p=11000000010001110101000011001001, cntr=11011101,  at=7547 ns
a=1110111011101110, b=1101110111011101,  p=11001111000100011011100101110110, cntr=11011110,  at=7581 ns
a=1111111111111111, b=1101110111011101,  p=11011101110111000010001000100011, cntr=11011111,  at=7615 ns
a=0000000000000000, b=1110111011101110,  p=00000000000000000000000000000000, cntr=11100000,  at=7649 ns
a=0001000100010001, b=1110111011101110,  p=00001111111011011010101111001110, cntr=11100001,  at=7683 ns
a=0010001000100010, b=1110111011101110,  p=00011111110110110101011110011100, cntr=11100010,  at=7717 ns
a=0011001100110011, b=1110111011101110,  p=00101111110010010000001101101010, cntr=11100011,  at=7751 ns
a=0100010001000100, b=1110111011101110,  p=00111111101101101010111100111000, cntr=11100100,  at=7785 ns
a=0101010101010101, b=1110111011101110,  p=01001111101001000101101100000110, cntr=11100101,  at=7819 ns
a=0110011001100110, b=1110111011101110,  p=01011111100100100000011011010100, cntr=11100110,  at=7853 ns
a=0111011101110111, b=1110111011101110,  p=01101111011111111011001010100010, cntr=11100111,  at=7887 ns
a=1000100010001000, b=1110111011101110,  p=01111111011011010101111001110000, cntr=11101000,  at=7921 ns
a=1001100110011001, b=1110111011101110,  p=10001111010110110000101000111110, cntr=11101001,  at=7955 ns
a=1010101010101010, b=1110111011101110,  p=10011111010010001011011000001100, cntr=11101010,  at=7989 ns
a=1011101110111011, b=1110111011101110,  p=10101111001101100110000111011010, cntr=11101011,  at=8023 ns
a=1100110011001100, b=1110111011101110,  p=10111111001001000000110110101000, cntr=11101100,  at=8057 ns
a=1101110111011101, b=1110111011101110,  p=11001111000100011011100101110110, cntr=11101101,  at=8091 ns
a=1110111011101110, b=1110111011101110,  p=11011110111111110110010101000100, cntr=11101110,  at=8125 ns
a=1111111111111111, b=1110111011101110,  p=11101110111011010001000100010010, cntr=11101111,  at=8159 ns
a=0000000000000000, b=1111111111111111,  p=00000000000000000000000000000000, cntr=11110000,  at=8193 ns
a=0001000100010001, b=1111111111111111,  p=00010001000100001110111011101111, cntr=11110001,  at=8227 ns
a=0010001000100010, b=1111111111111111,  p=00100010001000011101110111011110, cntr=11110010,  at=8261 ns
a=0011001100110011, b=1111111111111111,  p=00110011001100101100110011001101, cntr=11110011,  at=8295 ns
a=0100010001000100, b=1111111111111111,  p=01000100010000111011101110111100, cntr=11110100,  at=8329 ns
a=0101010101010101, b=1111111111111111,  p=01010101010101001010101010101011, cntr=11110101,  at=8363 ns
a=0110011001100110, b=1111111111111111,  p=01100110011001011001100110011010, cntr=11110110,  at=8397 ns
a=0111011101110111, b=1111111111111111,  p=01110111011101101000100010001001, cntr=11110111,  at=8431 ns
a=1000100010001000, b=1111111111111111,  p=10001000100001110111011101111000, cntr=11111000,  at=8465 ns
a=1001100110011001, b=1111111111111111,  p=10011001100110000110011001100111, cntr=11111001,  at=8499 ns
a=1010101010101010, b=1111111111111111,  p=10101010101010010101010101010110, cntr=11111010,  at=8533 ns
a=1011101110111011, b=1111111111111111,  p=10111011101110100100010001000101, cntr=11111011,  at=8567 ns
a=1100110011001100, b=1111111111111111,  p=11001100110010110011001100110100, cntr=11111100,  at=8601 ns
a=1101110111011101, b=1111111111111111,  p=11011101110111000010001000100011, cntr=11111101,  at=8635 ns
a=1110111011101110, b=1111111111111111,  p=11101110111011010001000100010010, cntr=11111110,  at=8669 ns
a=1111111111111111, b=1111111111111111,  p=11111111111111100000000000000001, cntr=11111111,  at=8703 ns
Ran until 8704 NS + 0
ncsim> exit
TOOL:	ncsim	15.20-s035: Exiting on Nov 18, 2020 at 14:20:16 EST  (total: 00:00:02)
